<!DOCTYPE html>
<html lang="{{ .Site.LanguageCode }}">
  <head>{{ partial "head.html" . }}</head>
  <body>
    <p> this is _defaults/baseof.html</p>
    {{ partial "header.html" . }}
    <main>
    {{ block "main" . }}
		{{ end }}
    </main>
    <footer>
    {{ partial "footer.html" . }}
    </footer>
  </body>
</html>

---

<!DOCTYPE html>
<html lang="{{ .Site.LanguageCode }}">
	<head>{{ partial "head.html" . }}</head>
  <body>

		{{ partial "header.html" . }}
		
		{{ partial "main.html" . }}
		
		{{ partial "footer.html" . }}

	</body>
</html>
